16908,64388
21128,78243
24246,89734
26572,96980
28313,100189
29014,101332
2987,24848
29936,103027
34194,113945
41195,129537
42086,131445
46997,146859
48779,151564
49893,153603
52597,160621
53257,162652
53769,163930
61272,191895
63697,222114
64751,229311
7461,36090
7665,36695
78759,264948
8053,37628
