id,love,joy,surprise,anger,sadness,fear
102391,x,,,x,,
103248,,,x,,,
103651,,,x,,,
104756,,,x,x,,
104992,,x,x,,,
105036,,,,,x,
105380,,x,,,,
105506,,,,,x,
105767,,x,,,,
106224,,x,,,,
107394,,x,,,,
107748,,x,,,,
10788,,x,,x,,
108762,,x,,,,
109672,,x,,,,
110106,x,,,,,x
110945,,x,,,,
111283,,,,,,x
11274,x,,,,,
112855,,x,,,x,
113542,,x,,,,
114866,,x,,,,
115919,,,,,x,x
116135,,,x,,x,
11614,,x,,,x,
117803,x,x,,,,
118478,,,,x,,
118661,,,,,x,
120376,,,,x,x,x
121375,,x,,,,
12160,,x,,,,x
121741,,x,,,x,
123091,,,x,x,x,
123147,,x,,x,,
123441,,x,,,,
123477,,x,,,x,
12418,,x,,,,
125563,,,,,x,
126046,,,,,x,
128007,x,x,,,,
128826,x,x,,,,
130837,,,,,x,
13098,,x,,,,
131534,,x,,,,
132715,,,,,x,
133100,,,,,x,
133353,,x,,,,
133921,,x,,,,x
134056,,x,,,,
134261,,,,,x,
135404,,x,,,,
13543,,x,,,,
13676,,x,,,,
136772,,,,x,,
137217,,,,,,x
137348,,x,,x,,
137779,x,,,,,
138907,,x,,,,
139125,,,,,x,
139221,x,x,,,,
142206,,,,,,x
142905,,,,,x,
142979,,x,,x,,
143253,,x,,,,
143359,,x,,,,
143377,x,,,,,
143686,,x,,,,
144107,,x,,,x,
144484,,,,,x,
145073,,x,,,x,
146094,,x,,,,
1461,,,,,,x
146935,,x,,,,
147366,,x,,,,
147695,x,,,,,
147722,,,,,x,
147759,,x,,,,
147856,,x,,,,
14803,,,,x,,
148176,,x,,,,
148458,,,,,x,
148521,,x,,,,
148830,,x,,,,
149047,,,,x,,
150414,,x,,,,
150583,,x,,,x,
151838,,x,,,,
152090,,x,,,,
152659,,x,,,,
155484,,,,,,x
155575,,x,,,,
158314,,x,,,,
158674,x,,,,x,
158803,,x,,,,
160632,x,,,,,
160836,,x,,x,,x
161397,,x,,,,
161981,,x,,,,
162281,,x,,,,
162439,,x,,,,
163291,x,,,,,
16330,,x,,,x,
164937,,,,,x,x
166626,x,,,,x,
166833,,x,,,,
16935,x,,,,,
170188,,x,,,,
17027,,x,,,,x
171739,,x,,,,
171993,,,,,,x
173,,,,x,,x
173270,x,,,,,
173475,,x,,,,
17429,,x,,,,
174629,,,,x,x,
175379,,,,,,x
18025,,x,,,,
18404,,,x,,,
19230,,x,,,,
19553,,,,,x,
19612,,x,,,,
21733,,x,,,,
21908,,x,,,,
22201,,,,x,,
23503,,x,,,,
23733,,x,,,,
2383,x,,,,,
24087,,,,,x,
24205,,x,,,,
24536,,,,,x,
24591,,,,x,,
2523,,,,,x,
25569,,x,,,,
25604,,,,,x,
25691,,x,,,,x
26507,,x,,,,
27523,x,x,,,,
2847,,,,,x,x
29039,,,,x,,
29177,,,,x,,
30012,,x,,,,
30015,,,,x,,
31665,,x,,x,,
32737,x,x,,,,
33004,,x,,,x,
33339,,,,,x,
33634,,,,,x,
34713,,x,,,x,
35457,x,,x,,,
35635,,,,,x,
35975,,,,x,,
36397,,,,x,,
36419,,x,,,x,
37158,,,,x,x,
37491,,x,x,,x,
3772,,,,x,,
38187,,,,,x,
38972,,,,,x,
39386,,,,,x,
39515,,,,,x,
39940,,,,,,x
4001,,x,,,,
40833,,,,,,x
4135,,,,,x,x
43428,,x,x,,,
44214,x,,,,,
45854,,x,,,,
46375,,,,x,,
46846,x,,,x,x,
47131,,,,x,,
4959,,,,,x,
49826,,x,,,,
50341,,x,,,,
51608,,x,,,,
51686,,,x,,,
56574,,x,,,,
56989,,,,,x,
57375,,,,x,,
575,,x,,x,,
58437,,x,,,,
58492,,,,x,x,
59707,,x,,,,
60301,,,,,x,
60308,,x,,,,
60982,,,,,x,
6099,x,,,,,
6122,,x,,,,
62230,,,,,x,
62267,,,,x,x,
62484,,x,,,,
6262,x,x,,,x,x
62761,x,x,,,,
64090,,x,,x,,
64762,,,,,x,
6489,x,x,,,,x
64992,,,,,x,
66763,x,,,,,
67306,,x,,,,
67753,,,,,x,
68134,,x,,,,
68749,,,,,x,
69297,,x,,,,
69611,x,x,,,,
70103,,,,,x,
70391,x,x,,,,
71289,,x,,,,
7226,x,,,,,
72294,,,,,x,
73028,,,,,x,
7422,x,x,,,,
74310,,,,,x,
74371,x,x,x,,x,
75054,,x,,,,
75686,,x,,,,
76563,x,x,,,,
78955,,,,,,x
79260,,,,,x,x
79452,,,,x,x,
81027,,,,x,,x
8372,,,,,x,
86183,x,,,,,
875,,,,x,,x
87879,,,,,x,
88268,,,,,x,
88816,,x,,,x,
89289,x,,,,,
90343,x,,,,,
90515,,x,,,,
91636,,x,,,x,
92051,,,,x,,
94166,x,x,,,,
95066,,x,,,,
95088,,,x,,x,
96239,,,,,x,
97878,,,,,x,
